{
  "python.globalModuleInstallation": true,
  "coc.preferences.formatOnSaveFiletypes": [
    "python",
    "css",
    "markdown",
    "javascript",
    "graphql",
    "html",
    "yaml",
    "json"
  ],
  "python.formatting.provider": "black",
  "python.formatting.blackArgs": [
    "--line-length",
    "119"
  ],
  "python.linting.enabled": true,
  "python.linting.flake8Enabled": true,
  "python.venvPath": "$HOME/.virtualenvs",
  "git.addedSign.hlGroup": "GitGutterAdd",
  "git.changedSign.hlGroup": "GitGutterChange",
  "git.removedSign.hlGroup": "GitGutterDelete",
  "git.topRemovedSign.hlGroup": "GitGutterDelete",
  "git.changeRemovedSign.hlGroup": "GitGutterChangeDelete",
  "suggest.preferCompleteThanJumpPlaceholder": true
}
